Introducing the EconDataverse: A Universe of R Packages for Economic Data • econdataverse
…
Let’s see how these packages work in practice.

Example: Accessing World Development Indicators

Let us fetch GDP in current USD for a selection of countries:

gdp_data <- wdi_get(
  indicators = "NY.GDP.MKTP.CD",
  entities = c("USA", "CHN", "DEU", "IND", "JPN"),
  start_year = 2000,
  end_year = 2024
)
gdp_data
#> # A tibble: 125 × 4
#>    entity_id indicator_id    year   value
#>    <chr>     <chr>          <int>   <dbl>
#>  1 CHN       NY.GDP.MKTP.CD  2000 1.22e12
#>  2 DEU       NY.GDP.MKTP.CD  2000 1.97e12
#>  3 IND       NY.GDP.MKTP.CD  2000 4.68e11
#>  4 JPN       NY.GDP.MKTP.CD  2000 4.97e12
#>  5 USA       NY.GDP.MKTP.CD  2000 1.03e13
#>  6 CHN       NY.GDP.MKTP.CD  2001 1.36e12
#>  7 DEU       NY.GDP.MKTP.CD  2001 1.97e12
#>  8 IND       NY.GDP.MKTP.CD  2001 4.85e11
#>  9 JPN       NY.GDP.MKTP.CD  2001 4.37e12
#> 10 USA       NY.GDP.MKTP.CD  2001 1.06e13
#> # ℹ 115 more rows

Each observation contains identifiers for entities and indicators. We
deliberately use consistent and descriptive primary key column names
(e.g., entity_id, indicator_id,
series_id) across packages. This simplifies joins and makes
data structures predictable across different data sources.

A convenient way to add standardized entity names for labeling and
plotting provided by the econid package:

gdp_data <- standardize_entity(gdp_data, entity_id)
#> Warning: Target column(s) "entity_id" share name(s) with output columns; original values
#> will be used for matching then overwritten with standardized values.
gdp_data
#> # A tibble: 125 × 6
#>    entity_id entity_name   entity_type indicator_id    year   value
#>    <chr>     <chr>         <chr>       <chr>          <int>   <dbl>
#>  1 CHN       China         economy     NY.GDP.MKTP.CD  2000 1.22e12
#>  2 DEU       Germany       economy     NY.GDP.MKTP.CD  2000 1.97e12
#>  3 IND       India         economy     NY.GDP.MKTP.CD  2000 4.68e11
#>  4 JPN       Japan         economy     NY.GDP.MKTP.CD  2000 4.97e12
#>  5 USA       United States economy     NY.GDP.MKTP.CD  2000 1.03e13
#>  6 CHN       China         economy     NY.GDP.MKTP.CD  2001 1.36e12
#>  7 DEU       Germany       economy     NY.GDP.MKTP.CD  2001 1.97e12
#>  8 IND       India         economy     NY.GDP.MKTP.CD  2001 4.85e11
#>  9 JPN       Japan         economy     NY.GDP.MKTP.CD  2001 4.37e12
#> 10 USA       United States economy     NY.GDP.MKTP.CD  2001 1.06e13
#> # ℹ 115 more rows
…
The econtools package provides convenience functions to
enrich existing data. For instance, you can easily add a population
column and calculate GDP per capita:

add_population_column(
  gdp_data,
  id_column = "entity_id",
  date_column = "year"
)
#> # A tibble: 125 × 7
#>    entity_id entity_name   entity_type indicator_id    year   value population
#>    <chr>     <chr>         <chr>       <chr>          <int>   <dbl>      <dbl>
#>  1 CHN       China         economy     NY.GDP.MKTP.CD  2000 1.22e12 1262645000
#>  2 DEU       Germany       economy     NY.GDP.MKTP.CD  2000 1.97e12   82211508
#>  3 IND       India         economy     NY.GDP.MKTP.CD  2000 4.68e11 1057922733
#>  4 JPN       Japan         economy     NY.GDP.MKTP.CD  2000 4.97e12  126843000
#>  5 USA       United States economy     NY.GDP.MKTP.CD  2000 1.03e13  282162411
#>  6 CHN       China         economy     NY.GDP.MKTP.CD  2001 1.36e12 1271850000
#>  7 DEU       Germany       economy     NY.GDP.MKTP.CD  2001 1.97e12   82349925
#>  8 IND       India         economy     NY.GDP.MKTP.CD  2001 4.85e11 1077898575
#>  9 JPN       Japan         economy     NY.GDP.MKTP.CD  2001 4.37e12  127149000
#> 10 USA       United States economy     NY.GDP.MKTP.CD  2001 1.06e13  284968955
#> # ℹ 115 more rows
…
